Designator	Footprint	Mid X	Mid Y	Ref X	Ref Y	Pad X	Pad Y	Layer	Rotation	Comment
"LED1"	"TCWIN TX1813N1"	"1.75mm"	"-1.75mm"	"1.75mm"	"-1.75mm"	"2.69mm"	"-2.39mm"	"T"	"0"	"TCWIN TX1813N1"
"LED2"	"TCWIN TX1813N1"	"5.25mm"	"-1.75mm"	"5.25mm"	"-1.75mm"	"6.19mm"	"-2.39mm"	"T"	"0"	"TCWIN TX1813N1"
"LED3"	"TCWIN TX1813N1"	"8.75mm"	"-1.75mm"	"8.75mm"	"-1.75mm"	"9.69mm"	"-2.39mm"	"T"	"0"	"TCWIN TX1813N1"
"LED4"	"TCWIN TX1813N1"	"12.25mm"	"-1.75mm"	"12.25mm"	"-1.75mm"	"13.19mm"	"-2.39mm"	"T"	"0"	"TCWIN TX1813N1"
"LED5"	"TCWIN TX1813N1"	"15.75mm"	"-1.75mm"	"15.75mm"	"-1.75mm"	"16.69mm"	"-2.39mm"	"T"	"0"	"TCWIN TX1813N1"
"LED6"	"TCWIN TX1813N1"	"19.25mm"	"-1.75mm"	"19.25mm"	"-1.75mm"	"20.19mm"	"-2.39mm"	"T"	"0"	"TCWIN TX1813N1"
"LED7"	"TCWIN TX1813N1"	"22.75mm"	"-1.76mm"	"22.75mm"	"-1.75mm"	"23.69mm"	"-2.4mm"	"T"	"0"	"TCWIN TX1813N1"
"LED8"	"TCWIN TX1813N1"	"26.25mm"	"-1.75mm"	"26.25mm"	"-1.75mm"	"27.19mm"	"-2.39mm"	"T"	"0"	"TCWIN TX1813N1"
"LED9"	"TCWIN TX1813N1"	"1.75mm"	"-5.25mm"	"1.75mm"	"-5.25mm"	"2.69mm"	"-5.89mm"	"T"	"0"	"TCWIN TX1813N1"
"LED10"	"TCWIN TX1813N1"	"5.25mm"	"-5.25mm"	"5.25mm"	"-5.25mm"	"6.19mm"	"-5.89mm"	"T"	"0"	"TCWIN TX1813N1"
"LED11"	"TCWIN TX1813N1"	"8.75mm"	"-5.25mm"	"8.75mm"	"-5.25mm"	"9.69mm"	"-5.89mm"	"T"	"0"	"TCWIN TX1813N1"
"LED12"	"TCWIN TX1813N1"	"12.25mm"	"-5.25mm"	"12.25mm"	"-5.25mm"	"13.19mm"	"-5.89mm"	"T"	"0"	"TCWIN TX1813N1"
"LED13"	"TCWIN TX1813N1"	"15.75mm"	"-5.25mm"	"15.75mm"	"-5.25mm"	"16.69mm"	"-5.89mm"	"T"	"0"	"TCWIN TX1813N1"
"LED14"	"TCWIN TX1813N1"	"19.25mm"	"-5.25mm"	"19.25mm"	"-5.25mm"	"20.19mm"	"-5.89mm"	"T"	"0"	"TCWIN TX1813N1"
"LED15"	"TCWIN TX1813N1"	"22.75mm"	"-5.25mm"	"22.75mm"	"-5.25mm"	"23.69mm"	"-5.89mm"	"T"	"0"	"TCWIN TX1813N1"
"LED16"	"TCWIN TX1813N1"	"26.25mm"	"-5.25mm"	"26.25mm"	"-5.25mm"	"27.19mm"	"-5.89mm"	"T"	"0"	"TCWIN TX1813N1"
"LED17"	"TCWIN TX1813N1"	"1.75mm"	"-8.75mm"	"1.75mm"	"-8.75mm"	"2.69mm"	"-9.39mm"	"T"	"0"	"TCWIN TX1813N1"
"LED18"	"TCWIN TX1813N1"	"5.25mm"	"-8.75mm"	"5.25mm"	"-8.75mm"	"6.19mm"	"-9.39mm"	"T"	"0"	"TCWIN TX1813N1"
"LED19"	"TCWIN TX1813N1"	"8.75mm"	"-8.75mm"	"8.75mm"	"-8.75mm"	"9.69mm"	"-9.39mm"	"T"	"0"	"TCWIN TX1813N1"
"LED20"	"TCWIN TX1813N1"	"12.25mm"	"-8.75mm"	"12.25mm"	"-8.75mm"	"13.19mm"	"-9.39mm"	"T"	"0"	"TCWIN TX1813N1"
"LED21"	"TCWIN TX1813N1"	"15.75mm"	"-8.75mm"	"15.75mm"	"-8.75mm"	"16.69mm"	"-9.39mm"	"T"	"0"	"TCWIN TX1813N1"
"LED22"	"TCWIN TX1813N1"	"19.25mm"	"-8.75mm"	"19.25mm"	"-8.75mm"	"20.19mm"	"-9.39mm"	"T"	"0"	"TCWIN TX1813N1"
"LED23"	"TCWIN TX1813N1"	"22.75mm"	"-8.75mm"	"22.75mm"	"-8.75mm"	"23.69mm"	"-9.39mm"	"T"	"0"	"TCWIN TX1813N1"
"LED24"	"TCWIN TX1813N1"	"26.25mm"	"-8.75mm"	"26.25mm"	"-8.75mm"	"27.19mm"	"-9.39mm"	"T"	"0"	"TCWIN TX1813N1"
"LED25"	"TCWIN TX1813N1"	"1.75mm"	"-12.25mm"	"1.75mm"	"-12.25mm"	"2.69mm"	"-12.89mm"	"T"	"0"	"TCWIN TX1813N1"
"LED26"	"TCWIN TX1813N1"	"5.25mm"	"-12.25mm"	"5.25mm"	"-12.25mm"	"6.19mm"	"-12.89mm"	"T"	"0"	"TCWIN TX1813N1"
"LED27"	"TCWIN TX1813N1"	"8.75mm"	"-12.25mm"	"8.75mm"	"-12.25mm"	"9.69mm"	"-12.89mm"	"T"	"0"	"TCWIN TX1813N1"
"LED28"	"TCWIN TX1813N1"	"12.25mm"	"-12.25mm"	"12.25mm"	"-12.25mm"	"13.19mm"	"-12.89mm"	"T"	"0"	"TCWIN TX1813N1"
"LED29"	"TCWIN TX1813N1"	"15.75mm"	"-12.25mm"	"15.75mm"	"-12.25mm"	"16.69mm"	"-12.89mm"	"T"	"0"	"TCWIN TX1813N1"
"LED30"	"TCWIN TX1813N1"	"19.25mm"	"-12.25mm"	"19.25mm"	"-12.25mm"	"20.19mm"	"-12.89mm"	"T"	"0"	"TCWIN TX1813N1"
"LED31"	"TCWIN TX1813N1"	"22.75mm"	"-12.25mm"	"22.75mm"	"-12.25mm"	"23.69mm"	"-12.89mm"	"T"	"0"	"TCWIN TX1813N1"
"LED32"	"TCWIN TX1813N1"	"26.25mm"	"-12.25mm"	"26.25mm"	"-12.25mm"	"27.19mm"	"-12.89mm"	"T"	"0"	"TCWIN TX1813N1"
"LED33"	"TCWIN TX1813N1"	"1.75mm"	"-15.75mm"	"1.75mm"	"-15.75mm"	"2.69mm"	"-16.39mm"	"T"	"0"	"TCWIN TX1813N1"
"LED34"	"TCWIN TX1813N1"	"5.25mm"	"-15.75mm"	"5.25mm"	"-15.75mm"	"6.19mm"	"-16.39mm"	"T"	"0"	"TCWIN TX1813N1"
"LED35"	"TCWIN TX1813N1"	"8.75mm"	"-15.75mm"	"8.75mm"	"-15.75mm"	"9.69mm"	"-16.39mm"	"T"	"0"	"TCWIN TX1813N1"
"LED36"	"TCWIN TX1813N1"	"12.25mm"	"-15.75mm"	"12.25mm"	"-15.75mm"	"13.19mm"	"-16.39mm"	"T"	"0"	"TCWIN TX1813N1"
"LED37"	"TCWIN TX1813N1"	"15.75mm"	"-15.75mm"	"15.75mm"	"-15.75mm"	"16.69mm"	"-16.39mm"	"T"	"0"	"TCWIN TX1813N1"
"LED38"	"TCWIN TX1813N1"	"19.25mm"	"-15.75mm"	"19.25mm"	"-15.75mm"	"20.19mm"	"-16.39mm"	"T"	"0"	"TCWIN TX1813N1"
"LED39"	"TCWIN TX1813N1"	"22.75mm"	"-15.75mm"	"22.75mm"	"-15.75mm"	"23.69mm"	"-16.39mm"	"T"	"0"	"TCWIN TX1813N1"
"LED40"	"TCWIN TX1813N1"	"26.25mm"	"-15.75mm"	"26.25mm"	"-15.75mm"	"27.19mm"	"-16.39mm"	"T"	"0"	"TCWIN TX1813N1"
"LED41"	"TCWIN TX1813N1"	"1.75mm"	"-19.25mm"	"1.75mm"	"-19.25mm"	"2.69mm"	"-19.89mm"	"T"	"0"	"TCWIN TX1813N1"
"LED42"	"TCWIN TX1813N1"	"5.25mm"	"-19.25mm"	"5.25mm"	"-19.25mm"	"6.19mm"	"-19.89mm"	"T"	"0"	"TCWIN TX1813N1"
"LED43"	"TCWIN TX1813N1"	"8.75mm"	"-19.25mm"	"8.75mm"	"-19.25mm"	"9.69mm"	"-19.89mm"	"T"	"0"	"TCWIN TX1813N1"
"LED44"	"TCWIN TX1813N1"	"12.25mm"	"-19.25mm"	"12.25mm"	"-19.25mm"	"13.19mm"	"-19.89mm"	"T"	"0"	"TCWIN TX1813N1"
"LED45"	"TCWIN TX1813N1"	"15.75mm"	"-19.25mm"	"15.75mm"	"-19.25mm"	"16.69mm"	"-19.89mm"	"T"	"0"	"TCWIN TX1813N1"
"LED46"	"TCWIN TX1813N1"	"19.25mm"	"-19.25mm"	"19.25mm"	"-19.25mm"	"20.19mm"	"-19.89mm"	"T"	"0"	"TCWIN TX1813N1"
"LED47"	"TCWIN TX1813N1"	"22.75mm"	"-19.25mm"	"22.75mm"	"-19.25mm"	"23.69mm"	"-19.89mm"	"T"	"0"	"TCWIN TX1813N1"
"LED48"	"TCWIN TX1813N1"	"26.25mm"	"-19.25mm"	"26.25mm"	"-19.25mm"	"27.19mm"	"-19.89mm"	"T"	"0"	"TCWIN TX1813N1"
"LED49"	"TCWIN TX1813N1"	"1.75mm"	"-22.75mm"	"1.75mm"	"-22.75mm"	"2.69mm"	"-23.39mm"	"T"	"0"	"TCWIN TX1813N1"
"LED50"	"TCWIN TX1813N1"	"5.25mm"	"-22.75mm"	"5.25mm"	"-22.75mm"	"6.19mm"	"-23.39mm"	"T"	"0"	"TCWIN TX1813N1"
"LED51"	"TCWIN TX1813N1"	"8.75mm"	"-22.75mm"	"8.75mm"	"-22.75mm"	"9.69mm"	"-23.39mm"	"T"	"0"	"TCWIN TX1813N1"
"LED52"	"TCWIN TX1813N1"	"12.25mm"	"-22.75mm"	"12.25mm"	"-22.75mm"	"13.19mm"	"-23.39mm"	"T"	"0"	"TCWIN TX1813N1"
"LED53"	"TCWIN TX1813N1"	"15.75mm"	"-22.75mm"	"15.75mm"	"-22.75mm"	"16.69mm"	"-23.39mm"	"T"	"0"	"TCWIN TX1813N1"
"LED54"	"TCWIN TX1813N1"	"19.25mm"	"-22.75mm"	"19.25mm"	"-22.75mm"	"20.19mm"	"-23.39mm"	"T"	"0"	"TCWIN TX1813N1"
"LED55"	"TCWIN TX1813N1"	"22.75mm"	"-22.75mm"	"22.75mm"	"-22.75mm"	"23.69mm"	"-23.39mm"	"T"	"0"	"TCWIN TX1813N1"
"LED56"	"TCWIN TX1813N1"	"26.25mm"	"-22.75mm"	"26.25mm"	"-22.75mm"	"27.19mm"	"-23.39mm"	"T"	"0"	"TCWIN TX1813N1"
"LED57"	"TCWIN TX1813N1"	"1.75mm"	"-26.25mm"	"1.75mm"	"-26.25mm"	"2.69mm"	"-26.89mm"	"T"	"0"	"TCWIN TX1813N1"
"LED58"	"TCWIN TX1813N1"	"5.25mm"	"-26.25mm"	"5.25mm"	"-26.25mm"	"6.19mm"	"-26.89mm"	"T"	"0"	"TCWIN TX1813N1"
"LED59"	"TCWIN TX1813N1"	"8.75mm"	"-26.25mm"	"8.75mm"	"-26.25mm"	"9.69mm"	"-26.89mm"	"T"	"0"	"TCWIN TX1813N1"
"LED60"	"TCWIN TX1813N1"	"12.25mm"	"-26.25mm"	"12.25mm"	"-26.25mm"	"13.19mm"	"-26.89mm"	"T"	"0"	"TCWIN TX1813N1"
"LED61"	"TCWIN TX1813N1"	"15.75mm"	"-26.25mm"	"15.75mm"	"-26.25mm"	"16.69mm"	"-26.89mm"	"T"	"0"	"TCWIN TX1813N1"
"LED62"	"TCWIN TX1813N1"	"19.25mm"	"-26.25mm"	"19.25mm"	"-26.25mm"	"20.19mm"	"-26.89mm"	"T"	"0"	"TCWIN TX1813N1"
"LED63"	"TCWIN TX1813N1"	"22.75mm"	"-26.25mm"	"22.75mm"	"-26.25mm"	"23.69mm"	"-26.89mm"	"T"	"0"	"TCWIN TX1813N1"
"LED64"	"TCWIN TX1813N1"	"26.25mm"	"-26.25mm"	"26.25mm"	"-26.25mm"	"27.19mm"	"-26.89mm"	"T"	"0"	"TCWIN TX1813N1"
"PAD1"	"EDGE SOLDER PAD"	"1.5mm"	"-3.81mm"	"1.28mm"	"-3.84mm"	"1.5mm"	"-3.81mm"	"B"	"0"	"EDGE SOLDER PAD"
"PAD2"	"EDGE SOLDER PAD"	"26.5mm"	"-3.81mm"	"26.5mm"	"-3.81mm"	"26.5mm"	"-3.81mm"	"T"	"180"	"EDGE SOLDER PAD"
"PAD3"	"EDGE SOLDER PAD"	"1.5mm"	"-1.27mm"	"1.5mm"	"-1.27mm"	"1.5mm"	"-1.27mm"	"B"	"0"	"EDGE SOLDER PAD"
"PAD4"	"EDGE SOLDER PAD"	"26.5mm"	"-1.27mm"	"26.24mm"	"-1.28mm"	"26.5mm"	"-1.27mm"	"B"	"180"	"EDGE SOLDER PAD"
"PAD5"	"EDGE SOLDER PAD"	"1.5mm"	"-6.35mm"	"1.28mm"	"-6.4mm"	"1.5mm"	"-6.35mm"	"B"	"0"	"EDGE SOLDER PAD"
"PAD6"	"EDGE SOLDER PAD"	"26.5mm"	"-6.35mm"	"26.24mm"	"-6.4mm"	"26.5mm"	"-6.35mm"	"B"	"180"	"EDGE SOLDER PAD"
"PAD7"	"EDGE SOLDER PAD"	"1.5mm"	"-8.89mm"	"1.28mm"	"-8.96mm"	"1.5mm"	"-8.89mm"	"T"	"0"	"EDGE SOLDER PAD"
"PAD8"	"EDGE SOLDER PAD"	"26.5mm"	"-8.89mm"	"26.24mm"	"-8.96mm"	"26.5mm"	"-8.89mm"	"B"	"180"	"EDGE SOLDER PAD"
